Detailed Report
…
Casual riders have a really high riding_time. But the most important part is the riding time 1 to 50 minutes contains most of the casual riders.

the mean riding time of casual riders is ca. 23 Minutes

time_all_member <- subset(time_all, member_casual == "member")

time_all_member

## # A tibble: 2,567,475 × 15
##      ...1 ride_id          rideable_type started_at          ended_at           
##     <dbl> <chr>            <chr>         <dttm>              <dttm>             
##  1 282329 7EEE94AFB81836C6 classic_bike  2021-04-03 13:47:44 2021-04-03 15:56:17
##  2 198186 F8A46808323A03DF classic_bike  2021-04-07 16:51:32 2021-04-07 19:00:14
##  3 148789 67AB06F93FBF96AE electric_bike 2021-04-14 17:37:21 2021-04-14 19:45:57
##  4 224826 D065049F0A03B4E7 classic_bike  2021-04-17 13:29:45 2021-04-17 15:38:41
##  5 731678 2ABCCC945F5A95FD classic_bike  2021-05-02 10:27:08 2021-05-02 12:36:22
##  6 460696 3679F888FB6C279D electric_bike 2021-05-15 22:17:52 2021-05-16 00:26:46
##  7 506073 7C98DB6ED149F2BD classic_bike  2021-05-18 09:33:17 2021-05-18 11:42:29
##  8 460616 2406203A73332112 classic_bike  2021-05-22 10:49:51 2021-05-22 12:58:57
##  9 513928 0DF812A7F84C04D4 classic_bike  2021-05-22 12:22:29 2021-05-22 14:31:45
## 10 569454 51E4B5017A451FC1 electric_bike 2021-05-28 22:09:03 2021-05-29 00:17:35
## # … with 2,567,465 more rows, and 10 more variables: start_station_name <chr>,
## #   start_station_id <chr>, end_station_name <chr>, end_station_id <chr>,
## #   start_lat <dbl>, start_lng <dbl>, end_lat <dbl>, end_lng <dbl>,
## #   member_casual <chr>, riding_time <dbl>
…
